<?xml version="1.0" encoding="UTF-8" standalone="no"?>
<!-- Created with Inkscape (http://www.inkscape.org/) -->

<svg
   xmlns:dc="http://purl.org/dc/elements/1.1/"
   xmlns:cc="http://creativecommons.org/ns#"
   xmlns:rdf="http://www.w3.org/1999/02/22-rdf-syntax-ns#"
   xmlns:svg="http://www.w3.org/2000/svg"
   xmlns="http://www.w3.org/2000/svg"
   xmlns:sodipodi="http://sodipodi.sourceforge.net/DTD/sodipodi-0.dtd"
   xmlns:inkscape="http://www.inkscape.org/namespaces/inkscape"
   width="256.96756mm"
   height="37.495251mm"
   viewBox="0 0 910.51498 132.85719"
   id="svg6328"
   version="1.1"
   inkscape:version="0.91 r13725"
   sodipodi:docname="q-cumber.org-growitup-HOR-tool.svg">
  <defs
     id="defs6330" />
  <sodipodi:namedview
     id="base"
     pagecolor="#ffffff"
     bordercolor="#666666"
     borderopacity="1.0"
     inkscape:pageopacity="0.0"
     inkscape:pageshadow="2"
     inkscape:zoom="0.49497475"
     inkscape:cx="474.22479"
     inkscape:cy="-39.579012"
     inkscape:document-units="px"
     inkscape:current-layer="layer1"
     showgrid="false"
     fit-margin-top="0"
     fit-margin-left="0"
     fit-margin-right="0"
     fit-margin-bottom="0"
     inkscape:window-width="1193"
     inkscape:window-height="591"
     inkscape:window-x="412"
     inkscape:window-y="260"
     inkscape:window-maximized="0" />
  <metadata
     id="metadata6333">
    <rdf:RDF>
      <cc:Work
         rdf:about="">
        <dc:format>image/svg+xml</dc:format>
        <dc:type
           rdf:resource="http://purl.org/dc/dcmitype/StillImage" />
        <dc:title />
      </cc:Work>
    </rdf:RDF>
  </metadata>
  <g
     inkscape:label="Layer 1"
     inkscape:groupmode="layer"
     id="layer1"
     transform="translate(486.68605,-380.21933)">
    <g
       id="g4370"
       transform="translate(-23.525814,-70.41616)">
      <g
         transform="translate(-492.69184,-516.17479)"
         id="g4279">
        <path
           inkscape:connector-curvature="0"
           id="path3348-2-8-3"
           style="fill:#fbf312;fill-opacity:1;fill-rule:nonzero;stroke:none;stroke-opacity:1"
           d="m 168.68178,987.38187 c -19.11025,-4.44725 -44.9057,3.69038 -46.61762,34.81333 -2.41113,43.8297 60.65137,70.2525 66.97412,70.2525 5.69337,0 17.0025,-6.1796 26.38525,-11.9946 9.04637,5.1533 16.44188,8.0029 21.03512,9.4834 2.9615,0.9541 6.187,-0.2099 7.877,-2.8218 l 0.0756,-0.1167 c 2.313,-3.5747 0.75537,-8.3866 -3.2295,-9.8863 -8.61813,-3.2436 -23.0815,-10.0512 -37.63713,-23.0057 -18.28562,-16.2745 -23.22712,-33.3424 -19.32475,-48.2085 1.938,-7.38338 9.23926,-24.22275 29.63913,-24.45175 19.94537,-0.22413 29.77987,16.9415 31.7515,24.45175 6.025,22.954 -8.06488,41.5439 -24.646,54.1679 4.15525,3.3716 11.919,6.876 11.919,6.876 16.732,-13.5283 29.22575,-30.5083 28.22075,-54.6328 -0.4875,-11.7105 -9.63875,-31.94973 -25.63338,-40.37497 -19.59037,-10.31963 -40.2295,-2.79888 -48.28412,2.96187 -10.0845,7.21237 -17.70513,19.28225 -18.4605,37.4131 -1.1065,26.5454 16.05713,46.499 34.81838,60.1343 -5.395,3.3896 -10.69051,6.9501 -14.50638,7.1255 -4.91262,0.2256 -63.87987,-25.7027 -53.39212,-62.9932 5.32275,-18.92482 18.85887,-19.5537 28.11674,-17.44582 1.73238,-7.82763 4.91888,-11.7475 4.91888,-11.7475" />
        <g
           id="g4477-4-5-5"
           style="fill:#ffffff;fill-opacity:1"
           transform="translate(461.5122,957.26679)">
          <path
             d="m -182.42917,93.987585 0,-0.181125 c 0,-18.05175 13.51625,-32.837875 32.7475,-32.837875 9.7975,0 16.2375,2.90275 21.77125,7.166 1.17875,0.90775 2.1775,2.44925 2.1775,4.44525 0,3.084 -2.45,5.442375 -5.53375,5.442375 -1.5425,0 -2.63,-0.543875 -3.35625,-1.088375 -4.355,-3.5375 -9.07125,-5.71425 -15.14875,-5.71425 -12.06625,0 -20.955,9.978 -20.955,22.40575 l 0,0.181125 c 0,12.42825 8.79875,22.497 20.955,22.497 6.7125,0 11.24875,-2.17725 15.875,-6.07812 0.815,-0.72551 1.99375,-1.26951 3.355,-1.26951 2.8125,0 5.26125,2.35838 5.26125,5.17038 0,1.72375 -0.81625,3.084 -1.81375,3.99175 -5.9875,5.26124 -12.79,8.52735 -23.04,8.52735 -18.50625,0 -32.295,-14.42385 -32.295,-32.657725"
             style="fill:#ffffff;fill-opacity:1;fill-rule:nonzero;stroke:none"
             id="path3350-7-0-6"
             inkscape:connector-curvature="0" />
          <path
             d="m -114.66417,98.342585 0,-31.477 c 0,-3.085 2.44875,-5.53425 5.62375,-5.53425 3.085,0 5.53375,2.44925 5.53375,5.53425 l 0,31.023375 c 0,11.7925 6.0775,18.05225 16.05625,18.05225 9.8875,0 15.965,-5.8965 15.965,-17.598625 l 0,-31.477 c 0,-3.085 2.45,-5.53425 5.625,-5.53425 3.08375,0 5.53375,2.44925 5.53375,5.53425 l 0,30.933 c 0,18.958495 -10.705,28.483935 -27.305,28.483935 -16.51,0 -27.0325,-9.52544 -27.0325,-27.939935"
             style="fill:#ffffff;fill-opacity:1;fill-rule:nonzero;stroke:none"
             id="path3352-7-6-2"
             inkscape:connector-curvature="0" />
          <path
             d="m -45.99417,67.27321 c 0,-3.084 2.45,-5.6245 5.62375,-5.6245 l 1.18125,0 c 2.44875,0 4.08125,1.2705 5.16875,2.994125 l 19.2325,30.11625 19.32125,-30.207 c 1.18,-1.90525 2.8125,-2.903375 5.08125,-2.903375 l 1.17875,0 c 3.175,0 5.62375,2.5405 5.62375,5.6245 l 0,53.15825 c 0,3.08398 -2.44875,5.53319 -5.62375,5.53319 -2.99375,0 -5.53375,-2.53955 -5.53375,-5.53319 l 0,-38.100125 -15.5125,23.313505 c -1.17875,1.81487 -2.63,2.90287 -4.71625,2.90287 -1.99625,0 -3.4475,-1.088 -4.62625,-2.90287 l -15.42125,-23.13188 0,38.00925 c 0,3.08404 -2.45,5.44244 -5.53375,5.44244 -3.085,0 -5.44375,-2.3584 -5.44375,-5.44244 l 0,-53.249"
             style="fill:#ffffff;fill-opacity:1;fill-rule:nonzero;stroke:none"
             id="path3354-5-4-9"
             inkscape:connector-curvature="0" />
          <path
             d="m 61.23208,115.66921 c 7.62,0 12.24625,-2.99413 12.24625,-8.7085 l 0,-0.18163 c 0,-5.35199 -4.26375,-8.52687 -13.0625,-8.52687 l -17.68875,0 0,17.417 18.505,0 z m -3.26625,-26.8515 c 7.16625,0 11.975,-2.8115 11.975,-8.61725 l 0,-0.182125 c 0,-4.98875 -3.99125,-8.07325 -11.15875,-8.07325 l -16.055,0 0,16.872625 15.23875,0 z M 31.74958,67.68146 c 0,-3.17525 2.45,-5.6245 5.625,-5.6245 l 22.85875,0 c 7.2575,0 12.9725,1.996125 16.60125,5.6245 2.8125,2.8125 4.26375,6.25925 4.26375,10.522875 l 0,0.18125 c 0,7.620625 -4.355,11.702625 -9.07125,14.151375 7.4375,2.54 12.60875,6.803125 12.60875,15.42138 l 0,0.18162 c 0,11.33888 -9.34375,17.41697 -23.495,17.41697 l -23.76625,0 c -3.175,0 -5.625,-2.44969 -5.625,-5.62447 l 0,-52.251"
             style="fill:#ffffff;fill-opacity:1;fill-rule:nonzero;stroke:none"
             id="path3356-4-6-1"
             inkscape:connector-curvature="0" />
          <path
             d="m 96.24833,119.93246 0,-52.251 c 0,-3.17525 2.45,-5.6245 5.625,-5.6245 l 36.92,0 c 2.72125,0 4.98875,2.268 4.98875,4.98975 0,2.8115 -2.2675,4.98875 -4.98875,4.98875 l -31.3875,0 0,16.51025 27.305,0 c 2.72125,0 4.98875,2.268 4.98875,5.080125 0,2.721125 -2.2675,4.898375 -4.98875,4.898375 l -27.305,0 0,17.05375 31.84,0 c 2.7225,0 4.98875,2.268 4.98875,4.98975 0,2.81198 -2.26625,4.98923 -4.98875,4.98923 l -37.3725,0 c -3.175,0 -5.625,-2.4497 -5.625,-5.62448"
             style="fill:#ffffff;fill-opacity:1;fill-rule:nonzero;stroke:none"
             id="path3358-8-2-2"
             inkscape:connector-curvature="0" />
          <path
             d="m 183.51833,93.30796 c 7.9825,0 13.0625,-4.172375 13.0625,-10.613375 l 0,-0.181625 c 0,-6.80325 -4.89875,-10.522875 -13.15375,-10.522875 l -16.2375,0 0,21.317875 16.32875,0 z M 156.03208,67.454835 c 0,-3.17525 2.45,-5.6245 5.625,-5.6245 l 22.6775,0 c 7.9825,0 14.2425,2.358875 18.32375,6.350125 3.35625,3.44725 5.26125,8.164125 5.26125,13.69775 l 0,0.181625 c 0,10.15975 -5.895,16.328125 -14.42375,18.958505 l 12.15625,15.33112 c 1.08875,1.36075 1.81375,2.54 1.81375,4.26363 0,3.08447 -2.63,5.17041 -5.35125,5.17041 -2.54,0 -4.17375,-1.1792 -5.44375,-2.90283 l -15.42125,-19.68458 -14.06,0 0,17.05425 c 0,3.08395 -2.45,5.53316 -5.5325,5.53316 -3.175,0 -5.625,-2.44921 -5.625,-5.53316 l 0,-52.795505"
             style="fill:#ffffff;fill-opacity:1;fill-rule:nonzero;stroke:none"
             id="path3360-1-5-7"
             inkscape:connector-curvature="0" />
        </g>
      </g>
      <text
         sodipodi:linespacing="125%"
         id="text3371-2-8-0"
         y="566.65649"
         x="200.00516"
         style="font-style:normal;font-variant:normal;font-weight:normal;font-stretch:normal;font-size:40px;line-height:125%;font-family:Lato;-inkscape-font-specification:'Lato, Normal';text-align:start;letter-spacing:0px;word-spacing:0px;writing-mode:lr-tb;text-anchor:start;fill:#fbf312;fill-opacity:1;stroke:none;stroke-width:1px;stroke-linecap:butt;stroke-linejoin:miter;stroke-opacity:1"
         xml:space="preserve"><tspan
           style="font-style:normal;font-variant:normal;font-weight:bold;font-stretch:normal;font-size:90px;font-family:Lato;-inkscape-font-specification:'Lato Bold';fill:#fbf312;fill-opacity:1"
           y="566.65649"
           x="200.00516"
           id="tspan3373-8-6-9"
           sodipodi:role="line">tool</tspan></text>
    </g>
  </g>
</svg>
